{
  "project_info": {
    "project_number": "128752452804",
    "firebase_url": "https://heythere-a5837.firebaseio.com",
    "project_id": "heythere-a5837",
    "storage_bucket": "heythere-a5837.appspot.com"
  },
  "client": [
    {
      "client_info": {
        "mobilesdk_app_id": "1:128752452804:android:9726724bee73a36c",
        "android_client_info": {
          "package_name": "com.yusuf.heythere"
        }
      },
      "oauth_client": [
        {
          "client_id": "128752452804-19dascm75ee42ardk2cft11f9kaitp6r.apps.googleusercontent.com",
          "client_type": 1,
          "android_info": {
            "package_name": "com.yusuf.heythere",
            "certificate_hash": "b45b69052582e79c681b91ae4732552de7918a84"
          }
        },
        {
          "client_id": "128752452804-vcjl7qgdmo5s2f9qvf0pcn8me009i0lu.apps.googleusercontent.com",
          "client_type": 3
        }
      ],
      "api_key": [
        {
          "current_key": "AIzaSyA9d-V17Rhp8SC9wffIZHQqdnnnkM0WqJE"
        }
      ],
      "services": {
        "analytics_service": {
          "status": 1
        },
        "appinvite_service": {
          "status": 2,
          "other_platform_oauth_client": [
            {
              "client_id": "128752452804-vcjl7qgdmo5s2f9qvf0pcn8me009i0lu.apps.googleusercontent.com",
              "client_type": 3
            }
          ]
        },
        "ads_service": {
          "status": 2
        }
      }
    }
  ],
  "configuration_version": "1"
}